Statistics with R
…
---

```r
grid <- expand.grid(Species = levels(iris$Species), Petal.Length = 2:4)
light_ice(mod_full, v = "Species")
```

```
## 
## I am an object of class light_ice 
## 
## data.frames:
## 
##  data 
## # A tibble: 60 x 4
##       id Species    value label
##    <int> <fct>      <dbl> <chr>
##  1   117 setosa      7.65 full 
##  2   117 versicolor  6.93 full 
##  3   117 virginica   6.63 full 
##  4   125 setosa      7.87 full 
##  5   125 versicolor  7.15 full 
##  6   125 virginica   6.85 full 
##  7    72 setosa      6.47 full 
##  8    72 versicolor  5.74 full 
##  9    72 virginica   5.44 full 
## 10    82 setosa      6.11 full 
## # ... with 50 more rows
```

```r
light_ice(mod_full, v = "Species", indices = (1:15) * 10)
```

```
## 
## I am an object of class light_ice 
## 
## data.frames:
## 
##  data 
## # A tibble: 45 x 4
##       id Species    value label
##    <dbl> <fct>      <dbl> <chr>
##  1    10 setosa      4.92 full 
##  2    10 versicolor  4.20 full 
##  3    10 virginica   3.90 full 
##  4    20 setosa      5.20 full 
##  5    20 versicolor  4.48 full 
##  6    20 virginica   4.18 full 
##  7    30 setosa      5.02 full 
##  8    30 versicolor  4.30 full 
##  9    30 virginica   4.00 full 
## 10    40 setosa      5.04 full 
## # ... with 35 more rows
```

---

```r
light_ice(mod_full, v = "Species", evaluate_at = levels(iris$Species))
```

```
## 
## I am an object of class light_ice 
## 
## data.frames:
## 
##  data 
## # A tibble: 60 x 4
##       id Species    value label
##    <int> <chr>      <dbl> <chr>
##  1    46 setosa      4.73 full 
##  2    46 versicolor  4.00 full 
##  3    46 virginica   3.70 full 
##  4    99 setosa      5.55 full 
##  5    99 versicolor  4.83 full 
##  6    99 virginica   4.53 full 
##  7    67 setosa      6.92 full 
##  8    67 versicolor  6.19 full 
##  9    67 virginica   5.89 full 
## 10   109 setosa      7.65 full 
## # ... with 50 more rows
```
…
---

```r
light_ice(mods, v = "Petal.Width", by = "Species", n_bins = 5)
```

```
## 
## I am an object of class light_ice_multi 
## 
## data.frames:
## 
##  data 
## # A tibble: 200 x 5
##       id Species    Petal.Width value label
##    <int> <fct>            <dbl> <dbl> <fct>
##  1    73 versicolor        0.25  6.67 full 
##  2    73 versicolor        0.75  6.51 full 
##  3    73 versicolor        1.25  6.36 full 
##  4    73 versicolor        1.75  6.20 full 
##  5    73 versicolor        2.25  6.04 full 
##  6    56 versicolor        0.25  6.49 full 
##  7    56 versicolor        0.75  6.33 full 
##  8    56 versicolor        1.25  6.17 full 
##  9    56 versicolor        1.75  6.02 full 
## 10    56 versicolor        2.25  5.86 full 
## # ... with 190 more rows
```
…
## Warning in warning_on_names(c("value_name", "label_name", "id_name"), ...):
## Using 'xyz_name' arguments is deprecated. Use 'options(flashlight.xyz_name
## = ...)' instead.
```

```
## 
## I am an object of class light_ice_multi 
## 
## data.frames:
## 
##  data 
## # A tibble: 880 x 5
##       id Species   Petal.Width value label
##    <int> <fct>           <dbl> <dbl> <fct>
##  1   142 virginica         0.1  6.88 full 
##  2   142 virginica         0.2  6.85 full 
##  3   142 virginica         0.3  6.82 full 
##  4   142 virginica         0.4  6.79 full 
##  5   142 virginica         0.5  6.76 full 
##  6   142 virginica         0.6  6.73 full 
##  7   142 virginica         1    6.60 full 
##  8   142 virginica         1.1  6.57 full 
##  9   142 virginica         1.2  6.54 full 
## 10   142 virginica         1.3  6.50 full 
## # ... with 870 more rows
```
…
